---
source: tests/cli_tests.rs
expression: "String::from_utf8_lossy(&output.stdout)"
---
ROUTE                                                                                        COUNT     RPS    P99_ms    P95_ms   MEDIAN_ms    MAX_ms    MIN_ms    STDDEV     SCORE     %FAIL
/api/:version/projects/:id/repository/branches                                                   5    0.02     798.2     704.0       169.9     821.8      53.4     279.0    3991.1     20.00
/api/:version/internal/post_receive                                                              2    0.01     376.9     362.4       198.5     380.6      16.5     182.0     753.9      0.00
/api/:version/internal/allowed                                                                 364    1.58     668.9     478.6        69.3     838.2      34.4     156.2  243494.1      0.00
/api/:version/jobs/request                                                                      12    0.05     372.4     351.5        18.9     377.6      14.6     124.3    4468.7      0.00
/api/:version/projects/:id/repository/tags                                                       4    0.02     208.5     189.1        48.7     213.4      36.1      73.3     834.2      0.00
/api/:version/projects/:id/merge_requests                                                       15    0.07     121.9     116.7        52.7     123.2      41.2      27.8    1829.0      0.00
/api/:version/projects/:id/pipelines                                                            10    0.04      96.4      77.7        33.8     101.1      30.6      20.3     964.1      0.00
/api/:version/feature_flags/unleash/:project_id/client/features                                461    2.00      78.1      17.8         3.6     233.0       3.0      17.2   36000.4      0.00
/api/:version/jobs/:id/trace                                                                     2    0.01      39.4      38.5        29.0      39.6      18.5      10.6      78.7      0.00
/api/:version/internal/kubernetes/agent_info                                                     3    0.01      32.6      30.8        11.2      33.0      10.1      10.5      97.7      0.00
/api/:version/internal/kubernetes/modules/starboard_vulnerability/policies_configuration        32    0.14      24.6      16.7         9.6      25.7       8.2       3.6     786.3      0.00
/api/:version/projects/:id/repository/files/:file_path                                           4    0.02      59.1      58.5        53.5      59.3      50.9       3.1     236.6      0.00
/api/:version/internal/pre_receive                                                               2    0.01       5.2       5.0         3.5       5.2       1.7       1.7      10.3      0.00
/api/:version/feature_flags/unleash/:project_id/client/metrics                                  72    0.31       6.6       4.3         2.9       7.0       2.5       0.8     472.0      0.00
/api/:version/internal/kubernetes/project_info                                                   2    0.01      17.1      17.1        16.5      17.1      15.9       0.6      34.3      0.00
/api/:version/analytics/group_activity/issues_count                                              1    0.00      39.3      39.3        39.3      39.3      39.3       0.0      39.3      0.00
/api/:version/analytics/group_activity/merge_requests_count                                      1    0.00      19.1      19.1        19.1      19.1      19.1       0.0      19.1      0.00
/api/:version/analytics/group_activity/new_members_count                                         1    0.00      29.4      29.4        29.4      29.4      29.4       0.0      29.4      0.00
/api/:version/projects/:id/issues/:issue_iid/award_emoji                                         1    0.00      41.9      41.9        41.9      41.9      41.9       0.0      41.9      0.00
/api/:version/projects/:id/issues/:issue_iid/related_merge_requests                              1    0.00      92.5      92.5        92.5      92.5      92.5       0.0      92.5      0.00
/api/:version/projects/:id/members/all                                                           1    0.00     157.7     157.7       157.7     157.7     157.7       0.0     157.7      0.00
/api/:version/todos                                                                              1    0.00       3.1       3.1         3.1       3.1       3.1       0.0       3.1      0.00
/api/:version/user_counts                                                                        1    0.00      14.5      14.5        14.5      14.5      14.5       0.0      14.5      0.00
/api/:version/users/:id                                                                          1    0.00      17.9      17.9        17.9      17.9      17.9       0.0      17.9      0.00
/api/:version/users/:user_id/status                                                              1    0.00      12.3      12.3        12.3      12.3      12.3       0.0      12.3      0.00

