---
source: tests/cli_tests.rs
expression: "String::from_utf8_lossy(&output.stdout)"
---
Totals

COUNT:   882
RPS:     294.00
DUR:     40.8s
CPU:     1.9s
GIT_RSS: 159.66 GiB
BYTES:   2.15 MiB
DISK_W:  80
FAIL_CT: 4


Top 10 Project by Duration -- Values

PROJECT            COUNT      RPS     DUR    CPU      GIT_RSS   RESP_BYTES   DISK_W   FAIL_CT
1d51c037             795   265.00   40.1s   1.5s   108.43 MiB    20.00 KiB        0         4
29f050cf               7     2.33    0.5s   0.3s     5.41 MiB     1.95 MiB       16         0
4a0240c5              16     5.33    0.1s   0.0s    11.57 MiB          0 B       64         0
b621a2a8               4     1.33    0.0s   0.0s     3.57 MiB          0 B        0         0
45be716c               2     0.67    0.0s   0.0s     3.09 MiB   188.08 KiB        0         0
155ac8a2               4     1.33    0.0s   0.0s     3.54 MiB          0 B        0         0
361dae30               2     0.67    0.0s   0.0s     5.29 MiB     1.54 KiB        0         0
b999fdba               1     0.33    0.0s   0.0s   457.89 KiB          0 B        0         0
418ae12b               2     0.67    0.0s   0.0s   486.75 KiB          0 B        0         0
59d730c5               1     0.33    0.0s   0.0s     2.64 MiB          0 B        0         0


Top 10 User by Duration -- Values

USER               COUNT      RPS     DUR    CPU      GIT_RSS   RESP_BYTES   DISK_W   FAIL_CT
5d2f443c             742   247.33    9.8s   0.0s          0 B          0 B        0         1
9794862c               1     0.33    9.8s   0.0s          0 B          0 B        0         1
502bfcbf               1     0.33    9.5s   0.0s          0 B          0 B        0         1
aefe6bbf               1     0.33    9.3s   0.0s          0 B          0 B        0         1
0ef681e7              23     7.67    1.5s   1.5s    60.82 MiB          0 B        0         0
ee4f4812               7     2.33    0.5s   0.3s     5.41 MiB     1.95 MiB       16         0
68ae4bef              16     5.33    0.1s   0.0s    11.57 MiB          0 B       64         0
11c8a1a2              27     9.00    0.1s   0.0s     5.83 MiB          0 B        0         0
710c7a36               4     1.33    0.1s   0.0s    10.58 MiB    20.00 KiB        0         0
02485a86               4     1.33    0.0s   0.0s     8.38 MiB          0 B        0         0


Top 10 Client by Duration -- Values

CLIENT             COUNT      RPS     DUR    CPU      GIT_RSS   RESP_BYTES   DISK_W   FAIL_CT
gitlab-sidekiq       746   248.67   38.4s   0.0s     2.64 MiB          0 B        0         4
gitlab-web            81    27.00    1.8s   1.5s   128.09 MiB          0 B       64         0
gitlab-workhorse      50    16.67    0.5s   0.2s    28.45 MiB     2.15 MiB        0         0
gitaly-hooks           1     0.33    0.2s   0.2s   486.75 KiB          0 B       16         0

