---
source: tests/cli_tests.rs
expression: "String::from_utf8_lossy(&output.stdout)"
---
Totals

COUNT:   1000
RPS:     4.33
DUR:     1m04.8s
DB:      29.7s
REDIS:   5.4s
GITALY:  1.8s
CPU:     26.3s
MEM:     787.19 MiB
FAIL_CT: 1


Top 10 Path by Count -- Values / Percentages

PATH                                                                                     COUNT          RPS           DUR            DB        REDIS       GITALY           CPU                MEM   FAIL_CT
/api/v4/feature_flags/unleash/8855/client/features                                   461 /  46   2.00 /  46    3.3s /   5    1.0s /   3   0.5s /  10   0.0s /   0    5.0s /  19   157.51 MiB /  20   0 /   0
/api/v4/internal/allowed                                                             364 /  36   1.58 /  36   55.6s /  86   27.5s /  92   4.1s /  77   0.6s /  31   16.7s /  64   461.13 MiB /  59   0 /   0
/api/v4/feature_flags/unleash/8855/client/metrics                                     72 /   7   0.31 /   7    0.2s /   0    0.0s /   0   0.0s /   0   0.0s /   0    0.8s /   3    22.80 MiB /   3   0 /   0
/api/v4/internal/kubernetes/modules/starboard_vulnerability/policies_configuration    32 /   3   0.14 /   3    0.3s /   1    0.1s /   0   0.0s /   0   0.0s /   0    0.5s /   2    14.45 MiB /   2   0 /   0
/api/v4/jobs/request                                                                  12 /   1   0.05 /   1    0.9s /   1    0.2s /   1   0.1s /   2   0.1s /   4    0.7s /   3    28.22 MiB /   4   0 /   0
/api/v4/projects/12804/merge_requests                                                  7 /   1   0.03 /   1    0.4s /   1    0.1s /   0   0.1s /   1   0.0s /   0    0.4s /   1    12.07 MiB /   2   0 /   0
/api/v4/projects/12804/pipelines                                                       7 /   1   0.03 /   1    0.3s /   0    0.0s /   0   0.0s /   0   0.0s /   0    0.2s /   1    10.27 MiB /   1   0 /   0
/api/v4/projects/1259/merge_requests                                                   4 /   0   0.02 /   0    0.4s /   1    0.1s /   0   0.0s /   0   0.0s /   0    0.3s /   1    14.42 MiB /   2   0 /   0
/api/v4/projects/wiscfed%2Fspgen/repository/files/Jenkinsfile                          4 /   0   0.02 /   0    0.2s /   0    0.0s /   0   0.0s /   0   0.1s /   4    0.2s /   1     6.75 MiB /   1   0 /   0
/api/v4/internal/kubernetes/agent_info                                                 3 /   0   0.01 /   0    0.1s /   0    0.0s /   0   0.0s /   0   0.0s /   0    0.0s /   0     1.62 MiB /   0   0 /   0


Top 10 Project by Count -- Values / Percentages

PROJECT                                                                                  COUNT          RPS           DUR            DB        REDIS       GITALY           CPU                MEM   FAIL_CT
dcc8354f                                                                              99 /  10   0.43 /  10   15.3s /  24    7.2s /  24   0.6s /  11   0.0s /   0    4.7s /  18   138.09 MiB /  18   0 /   0
05194523                                                                              92 /   9   0.40 /   9   15.0s /  23    7.3s /  24   1.6s /  29   0.0s /   0    4.5s /  17   133.72 MiB /  17   0 /   0
59cfea05                                                                              66 /   7   0.29 /   7   18.1s /  28   10.8s /  36   1.6s /  30   0.0s /   0    2.9s /  11    67.92 MiB /   9   0 /   0
80757489                                                                              63 /   6   0.27 /   6    4.4s /   7    1.6s /   5   0.2s /   4   0.0s /   0    2.7s /  10    65.69 MiB /   8   0 /   0
a28b8c70                                                                              33 /   3   0.14 /   3    1.4s /   2    0.3s /   1   0.0s /   0   0.0s /   0    1.5s /   6    35.12 MiB /   4   0 /   0
37974c26                                                                              14 /   1   0.06 /   1    0.7s /   1    0.1s /   0   0.1s /   1   0.0s /   0    0.6s /   2    22.35 MiB /   3   0 /   0
c24bef55                                                                              10 /   1   0.04 /   1    2.1s /   3    0.3s /   1   0.3s /   5   0.8s /  44    0.7s /   3    27.62 MiB /   4   0 /   0
1515fd79                                                                               6 /   1   0.03 /   1    0.4s /   1    0.1s /   0   0.0s /   1   0.0s /   0    0.3s /   1     9.54 MiB /   1   0 /   0
7ef7758b                                                                               6 /   1   0.03 /   1    0.4s /   1    0.0s /   0   0.0s /   1   0.1s /   8    0.3s /   1    12.14 MiB /   2   0 /   0
89a98074                                                                               5 /   0   0.02 /   0    0.5s /   1    0.1s /   0   0.0s /   0   0.0s /   0    0.4s /   1    16.15 MiB /   2   0 /   0


Top 10 User by Count -- Values / Percentages

USER                                                                                     COUNT          RPS           DUR            DB        REDIS       GITALY           CPU                MEM   FAIL_CT
40ca4b50                                                                             103 /  10   0.45 /  10    8.6s /  13    3.2s /  11   0.7s /  12   0.0s /   0    4.5s /  17   107.73 MiB /  14   0 /   0
e716e2a3                                                                             103 /  10   0.45 /  10   21.0s /  32   10.6s /  36   1.4s /  26   0.0s /   0    5.3s /  20   181.42 MiB /  23   0 /   0
b72b7d99                                                                              66 /   7   0.29 /   7   18.1s /  28   10.8s /  36   1.6s /  30   0.0s /   0    2.9s /  11    67.92 MiB /   9   0 /   0
c90d0f72                                                                              48 /   5   0.21 /   5    5.0s /   8    2.3s /   8   0.3s /   5   0.0s /   0    2.0s /   8    48.35 MiB /   6   0 /   0
6a642eff                                                                              33 /   3   0.14 /   3    1.4s /   2    0.3s /   1   0.0s /   0   0.0s /   0    1.5s /   6    35.12 MiB /   4   0 /   0
03d4238e                                                                              14 /   1   0.06 /   1    0.7s /   1    0.1s /   0   0.1s /   1   0.0s /   0    0.6s /   2    22.35 MiB /   3   0 /   0
3b10009d                                                                               9 /   1   0.04 /   1    1.4s /   2    0.2s /   1   0.2s /   3   0.7s /  42    0.4s /   2    19.14 MiB /   2   1 / 100
7f2d5785                                                                               8 /   1   0.03 /   1    2.1s /   3    0.3s /   1   0.3s /   5   0.8s /  44    0.7s /   3    26.86 MiB /   3   0 /   0
240f29cd                                                                               7 /   1   0.03 /   1    0.6s /   1    0.1s /   0   0.0s /   1   0.1s /   8    0.4s /   2    15.40 MiB /   2   0 /   0
495fc279                                                                               6 /   1   0.03 /   1    0.4s /   1    0.1s /   0   0.0s /   1   0.0s /   0    0.3s /   1     9.54 MiB /   1   0 /   0

