---
source: tests/cli_tests.rs
expression: "String::from_utf8_lossy(&output.stdout)"
---
Totals

COUNT:   523
RPS:     1.26
DUR:     21.5s


Top 10 Project by Duration -- Values

PROJECT    COUNT    RPS    DUR   FAIL_CT
00256709       0   0.00   0.0s         0
04bf3c93       0   0.00   0.0s         0
07e7783e       0   0.00   0.0s         0
0821e4bf       0   0.00   0.0s         0
0dcc0188       0   0.00   0.0s         0
15269a56       0   0.00   0.0s         0
155f85cd       0   0.00   0.0s         0
233177c8       0   0.00   0.0s         0
23b13791       0   0.00   0.0s         0
273b3aba       0   0.00   0.0s         0


Top 10 User by Duration -- Values

USER       COUNT    RPS    DUR   FAIL_CT
188b22d0       0   0.00   0.0s         0
3b1d02e4       0   0.00   0.0s         0
5b9d9947       0   0.00   0.0s         0
68fd46b7       0   0.00   0.0s         0
762984d1       0   0.00   0.0s         0
78c88932       0   0.00   0.0s         0
afcb69b7       0   0.00   0.0s         0
bb3e03d8       0   0.00   0.0s         0
c4b684cc       0   0.00   0.0s         0
c921e4a9       0   0.00   0.0s         0

