---
source: tests/cli_tests.rs
expression: "String::from_utf8_lossy(&output.stdout)"
---
ROUTE                                                                                       STDDEV
/api/:version/internal/allowed                                                               156.2
/api/:version/feature_flags/unleash/:project_id/client/features                               17.2
/api/:version/jobs/request                                                                   124.3
/api/:version/projects/:id/repository/branches                                               279.0
/api/:version/projects/:id/merge_requests                                                     27.8
/api/:version/projects/:id/pipelines                                                          20.3
/api/:version/projects/:id/repository/tags                                                    73.3
/api/:version/internal/kubernetes/modules/starboard_vulnerability/policies_configuration       3.6
/api/:version/internal/post_receive                                                          182.0
/api/:version/feature_flags/unleash/:project_id/client/metrics                                 0.8
/api/:version/projects/:id/repository/files/:file_path                                         3.1
/api/:version/projects/:id/members/all                                                         0.0
/api/:version/internal/kubernetes/agent_info                                                  10.5
/api/:version/projects/:id/issues/:issue_iid/related_merge_requests                            0.0
/api/:version/jobs/:id/trace                                                                  10.6
/api/:version/projects/:id/issues/:issue_iid/award_emoji                                       0.0
/api/:version/analytics/group_activity/issues_count                                            0.0
/api/:version/internal/kubernetes/project_info                                                 0.6
/api/:version/analytics/group_activity/new_members_count                                       0.0
/api/:version/analytics/group_activity/merge_requests_count                                    0.0
/api/:version/users/:id                                                                        0.0
/api/:version/user_counts                                                                      0.0
/api/:version/users/:user_id/status                                                            0.0
/api/:version/internal/pre_receive                                                             1.7
/api/:version/todos                                                                            0.0

