---
source: tests/cli_tests.rs
expression: "String::from_utf8_lossy(&output.stdout)"
---
** Splitting input into 1 minute increments **

First event: 2023-03-14 14:48:24.909
Last event:  2023-03-14 14:52:15.465


   >>> 2023-03-14 14:48:00 <<<

ROUTE                                                                                        COUNT     RPS    P99_ms    P95_ms   MEDIAN_ms    MAX_ms    MIN_ms    STDDEV     SCORE     %FAIL
/api/:version/internal/allowed                                                                  59    0.98     202.5     158.0        54.2     215.9      34.6      42.0   11949.9      0.00
/api/:version/feature_flags/unleash/:project_id/client/features                                 70    1.17      18.4       5.4         3.4      30.0       3.0       3.4    1288.6      0.00
/api/:version/projects/:id/merge_requests                                                        3    0.05      98.7      96.8        75.3      99.1      52.7      19.0     296.0      0.00
/api/:version/jobs/request                                                                       6    0.10      20.6      20.2        17.0      20.8      14.6       2.1     123.9      0.00
/api/:version/projects/:id/pipelines                                                             2    0.03      49.1      48.4        41.1      49.2      32.9       8.2      98.2      0.00
/api/:version/internal/kubernetes/modules/starboard_vulnerability/policies_configuration         8    0.13      11.8      11.7        10.0      11.8       8.5       1.1      94.1      0.00
/api/:version/projects/:id/issues/:issue_iid/related_merge_requests                              1    0.02      92.5      92.5        92.5      92.5      92.5       0.0      92.5      0.00
/api/:version/projects/:id/issues/:issue_iid/award_emoji                                         1    0.02      41.9      41.9        41.9      41.9      41.9       0.0      41.9      0.00
/api/:version/feature_flags/unleash/:project_id/client/metrics                                  10    0.17       3.7       3.6         2.8       3.8       2.5       0.4      37.3      0.00
/api/:version/internal/kubernetes/agent_info                                                     1    0.02      11.2      11.2        11.2      11.2      11.2       0.0      11.2      0.00

   >>> 2023-03-14 14:49:00 <<<

ROUTE                                                                                        COUNT     RPS    P99_ms    P95_ms   MEDIAN_ms    MAX_ms    MIN_ms    STDDEV     SCORE     %FAIL
/api/:version/internal/allowed                                                                  69    1.15     463.6     342.5        52.0     602.8      35.1     115.3   31990.3      0.00
/api/:version/feature_flags/unleash/:project_id/client/features                                118    1.97      60.3      15.1         3.6      80.4       3.0      10.0    7119.6      0.00
/api/:version/projects/:id/merge_requests                                                        5    0.08     113.1     110.0        50.2     113.9      41.2      29.2     565.6      0.00
/api/:version/projects/:id/repository/branches                                                   2    0.03     231.4     224.2       143.3     233.2      53.4      89.9     462.7     50.00
/api/:version/projects/:id/pipelines                                                             4    0.07      99.1      91.0        33.7     101.1      30.6      29.6     396.2      0.00
/api/:version/feature_flags/unleash/:project_id/client/metrics                                  20    0.33       5.9       3.9         2.9       6.4       2.7       0.8     117.6      0.00
/api/:version/projects/:id/repository/tags                                                       2    0.03      51.4      51.2        48.7      51.5      45.9       2.8     102.9      0.00
/api/:version/internal/kubernetes/modules/starboard_vulnerability/policies_configuration         8    0.13      11.7      11.3         9.6      11.8       8.5       1.0      93.5      0.00
/api/:version/jobs/request                                                                       2    0.03      29.5      29.0        23.1      29.6      16.7       6.5      59.0      0.00
/api/:version/users/:id                                                                          1    0.02      17.9      17.9        17.9      17.9      17.9       0.0      17.9      0.00
/api/:version/internal/kubernetes/project_info                                                   1    0.02      17.1      17.1        17.1      17.1      17.1       0.0      17.1      0.00
/api/:version/user_counts                                                                        1    0.02      14.5      14.5        14.5      14.5      14.5       0.0      14.5      0.00
/api/:version/users/:user_id/status                                                              1    0.02      12.3      12.3        12.3      12.3      12.3       0.0      12.3      0.00

   >>> 2023-03-14 14:50:00 <<<

ROUTE                                                                                        COUNT     RPS    P99_ms    P95_ms   MEDIAN_ms    MAX_ms    MIN_ms    STDDEV     SCORE     %FAIL
/api/:version/internal/allowed                                                                 118    1.97     705.4     531.7        74.6     811.7      36.4     170.9   83237.7      0.00
/api/:version/feature_flags/unleash/:project_id/client/features                                122    2.03      87.9      18.2         3.6     209.2       3.1      21.3   10727.2      0.00
/api/:version/projects/:id/merge_requests                                                        3    0.05      80.5      78.0        49.7      81.1      45.2      16.0     241.5      0.00
/api/:version/feature_flags/unleash/:project_id/client/metrics                                  20    0.33       6.6       5.0         3.0       7.0       2.6       1.0     132.3      0.00
/api/:version/jobs/request                                                                       2    0.03      58.5      56.9        39.0      58.9      19.2      19.9     117.1      0.00
/api/:version/internal/kubernetes/modules/starboard_vulnerability/policies_configuration         8    0.13      12.1      11.6         9.1      12.2       8.3       1.2      96.9      0.00
/api/:version/projects/:id/pipelines                                                             2    0.03      33.8      33.7        33.3      33.8      32.9       0.4      67.5      0.00
/api/:version/analytics/group_activity/issues_count                                              1    0.02      39.3      39.3        39.3      39.3      39.3       0.0      39.3      0.00
/api/:version/internal/kubernetes/agent_info                                                     1    0.02      33.0      33.0        33.0      33.0      33.0       0.0      33.0      0.00
/api/:version/analytics/group_activity/new_members_count                                         1    0.02      29.4      29.4        29.4      29.4      29.4       0.0      29.4      0.00
/api/:version/analytics/group_activity/merge_requests_count                                      1    0.02      19.1      19.1        19.1      19.1      19.1       0.0      19.1      0.00
/api/:version/todos                                                                              1    0.02       3.1       3.1         3.1       3.1       3.1       0.0       3.1      0.00

   >>> 2023-03-14 14:51:00 <<<

ROUTE                                                                                        COUNT     RPS    P99_ms    P95_ms   MEDIAN_ms    MAX_ms    MIN_ms    STDDEV     SCORE     %FAIL
/api/:version/internal/allowed                                                                  66    1.10     590.4     456.3        61.0     602.1      34.4     151.2   38967.0      0.00
/api/:version/feature_flags/unleash/:project_id/client/features                                120    2.00      43.6      15.5         3.7     233.0       3.0      21.4    5236.5      0.00
/api/:version/projects/:id/merge_requests                                                        4    0.07     122.4     119.2        70.6     123.2      41.9      34.6     489.8      0.00
/api/:version/projects/:id/repository/branches                                                   2    0.03     169.3     166.7       138.1     169.9     106.3      31.8     338.6      0.00
/api/:version/projects/:id/repository/files/:file_path                                           4    0.07      59.1      58.5        53.5      59.3      50.9       3.1     236.6      0.00
/api/:version/internal/kubernetes/modules/starboard_vulnerability/policies_configuration         8    0.13      25.4      24.4        10.1      25.7       8.2       6.3     203.3      0.00
/api/:version/projects/:id/members/all                                                           1    0.02     157.7     157.7       157.7     157.7     157.7       0.0     157.7      0.00
/api/:version/feature_flags/unleash/:project_id/client/metrics                                  20    0.33       4.0       3.8         2.8       4.1       2.6       0.4      80.5      0.00
/api/:version/projects/:id/pipelines                                                             2    0.03      39.3      39.1        36.6      39.3      33.8       2.8      78.6      0.00
/api/:version/projects/:id/repository/tags                                                       1    0.02      36.1      36.1        36.1      36.1      36.1       0.0      36.1      0.00
/api/:version/internal/kubernetes/project_info                                                   1    0.02      15.9      15.9        15.9      15.9      15.9       0.0      15.9      0.00
/api/:version/internal/kubernetes/agent_info                                                     1    0.02      10.1      10.1        10.1      10.1      10.1       0.0      10.1      0.00

   >>> 2023-03-14 14:52:00 <<<

ROUTE                                                                                        COUNT     RPS    P99_ms    P95_ms   MEDIAN_ms    MAX_ms    MIN_ms    STDDEV     SCORE     %FAIL
/api/:version/internal/allowed                                                                  52    0.87     794.7     575.6       272.7     838.2      36.5     181.5   41324.2      0.00
/api/:version/feature_flags/unleash/:project_id/client/features                                 31    0.52      74.4      51.8         5.7      81.4       3.2      18.4    2306.4      0.00
/api/:version/projects/:id/repository/branches                                                   1    0.02     821.8     821.8       821.8     821.8     821.8       0.0     821.8      0.00
/api/:version/jobs/request                                                                       2    0.03     377.1     375.2       353.9     377.6     330.2      23.7     754.3      0.00
/api/:version/internal/post_receive                                                              2    0.03     376.9     362.4       198.5     380.6      16.5     182.0     753.9      0.00
/api/:version/projects/:id/repository/tags                                                       1    0.02     213.4     213.4       213.4     213.4     213.4       0.0     213.4      0.00
/api/:version/jobs/:id/trace                                                                     2    0.03      39.4      38.5        29.0      39.6      18.5      10.6      78.7      0.00
/api/:version/internal/pre_receive                                                               2    0.03       5.2       5.0         3.5       5.2       1.7       1.7      10.3      0.00
/api/:version/feature_flags/unleash/:project_id/client/metrics                                   2    0.03       2.8       2.8         2.7       2.9       2.6       0.1       5.7      0.00

