---
source: tests/cli_tests.rs
expression: "String::from_utf8_lossy(&output.stdout)"
---
ROUTE                                                                                        %FAIL
/api/:version/internal/allowed                                                                0.00
/api/:version/feature_flags/unleash/:project_id/client/features                               0.00
/api/:version/jobs/request                                                                    0.00
/api/:version/projects/:id/repository/branches                                               20.00
/api/:version/projects/:id/merge_requests                                                     0.00
/api/:version/projects/:id/pipelines                                                          0.00
/api/:version/projects/:id/repository/tags                                                    0.00
/api/:version/internal/kubernetes/modules/starboard_vulnerability/policies_configuration      0.00
/api/:version/internal/post_receive                                                           0.00
/api/:version/feature_flags/unleash/:project_id/client/metrics                                0.00
/api/:version/projects/:id/repository/files/:file_path                                        0.00
/api/:version/projects/:id/members/all                                                        0.00
/api/:version/internal/kubernetes/agent_info                                                  0.00
/api/:version/projects/:id/issues/:issue_iid/related_merge_requests                           0.00
/api/:version/jobs/:id/trace                                                                  0.00
/api/:version/projects/:id/issues/:issue_iid/award_emoji                                      0.00
/api/:version/analytics/group_activity/issues_count                                           0.00
/api/:version/internal/kubernetes/project_info                                                0.00
/api/:version/analytics/group_activity/new_members_count                                      0.00
/api/:version/analytics/group_activity/merge_requests_count                                   0.00
/api/:version/users/:id                                                                       0.00
/api/:version/user_counts                                                                     0.00
/api/:version/users/:user_id/status                                                           0.00
/api/:version/internal/pre_receive                                                            0.00
/api/:version/todos                                                                           0.00

