---
source: tests/cli_tests.rs
expression: "String::from_utf8_lossy(&output.stdout)"
---
ROUTE                                                                                      MEDIAN_ms
/api/:version/internal/allowed                                                                  69.3
/api/:version/feature_flags/unleash/:project_id/client/features                                  3.6
/api/:version/jobs/request                                                                      18.9
/api/:version/projects/:id/repository/branches                                                 169.9
/api/:version/projects/:id/merge_requests                                                       52.7
/api/:version/projects/:id/pipelines                                                            33.8
/api/:version/projects/:id/repository/tags                                                      48.7
/api/:version/internal/kubernetes/modules/starboard_vulnerability/policies_configuration         9.6
/api/:version/internal/post_receive                                                            198.5
/api/:version/feature_flags/unleash/:project_id/client/metrics                                   2.9
/api/:version/projects/:id/repository/files/:file_path                                          53.5
/api/:version/projects/:id/members/all                                                         157.7
/api/:version/internal/kubernetes/agent_info                                                    11.2
/api/:version/projects/:id/issues/:issue_iid/related_merge_requests                             92.5
/api/:version/jobs/:id/trace                                                                    29.0
/api/:version/projects/:id/issues/:issue_iid/award_emoji                                        41.9
/api/:version/analytics/group_activity/issues_count                                             39.3
/api/:version/internal/kubernetes/project_info                                                  16.5
/api/:version/analytics/group_activity/new_members_count                                        29.4
/api/:version/analytics/group_activity/merge_requests_count                                     19.1
/api/:version/users/:id                                                                         17.9
/api/:version/user_counts                                                                       14.5
/api/:version/users/:user_id/status                                                             12.3
/api/:version/internal/pre_receive                                                               3.5
/api/:version/todos                                                                              3.1

