---
source: tests/cli_tests.rs
expression: "String::from_utf8_lossy(&output.stdout)"
---
Totals

COUNT:   420
RPS:     32.31
DUR:     10m38.5s
DB:      1m55.9s
REDIS:   21.9s
GITALY:  12.1s
QUEUE:   25.1s
CPU:     2m04.7s
MEM:     5.76 GiB


Top 10 Project by Duration -- Values / Percentages

PROJECT        COUNT           RPS             DUR              DB         REDIS       GITALY         QUEUE             CPU                MEM   FAIL_CT
34eb470c   340 /  81   26.15 /  81   7m23.0s /  69   1m46.7s /  92   18.2s /  83   3.8s /  32   15.7s /  63     24.7s /  20     1.99 GiB /  34   0 /   0
296bf9f2    12 /   3    0.92 /   3      9.5s /   1      2.9s /   2    1.6s /   7   0.0s /   0    2.8s /  11      0.3s /   0    10.04 MiB /   0   0 /   0
fd9c063f    18 /   4    1.38 /   4      3.4s /   1      0.3s /   0    0.2s /   1   0.0s /   0    1.6s /   6      0.5s /   0    11.74 MiB /   0   0 /   0
9153129c     1 /   0    0.08 /   0      2.7s /   0      0.1s /   0    0.0s /   0   2.5s /  21    0.0s /   0      0.1s /   0     1.82 MiB /   0   0 /   0
464fb520     1 /   0    0.08 /   0      2.0s /   0      0.0s /   0    0.0s /   0   1.9s /  16    0.0s /   0      0.1s /   0     1.69 MiB /   0   0 /   0
488bd876     2 /   0    0.15 /   0      1.5s /   0      0.1s /   0    0.0s /   0   1.4s /  11    0.0s /   0      0.1s /   0     2.61 MiB /   0   0 /   0
a9dc29e2     1 /   0    0.08 /   0      0.5s /   0      0.1s /   0    0.0s /   0   0.0s /   0    0.0s /   0      0.1s /   0     3.96 MiB /   0   0 /   0
26259b6a     1 /   0    0.08 /   0      0.1s /   0      0.0s /   0    0.0s /   0   0.0s /   0    0.0s /   0      0.0s /   0   811.52 KiB /   0   0 /   0
a63e04ec     1 /   0    0.08 /   0      0.1s /   0      0.0s /   0    0.0s /   0   0.0s /   0    0.0s /   0      0.0s /   0   902.60 KiB /   0   0 /   0
cb00abf4     1 /   0    0.08 /   0      0.1s /   0      0.0s /   0    0.0s /   0   0.0s /   0    0.0s /   0      0.0s /   0   764.87 KiB /   0   0 /   0


Top 10 User by Duration -- Values / Percentages

USER           COUNT           RPS             DUR              DB         REDIS       GITALY         QUEUE             CPU                MEM   FAIL_CT
a8f14bee   119 /  28    9.15 /  28   3m51.9s /  36   1m04.8s /  56    7.8s /  36   2.1s /  18    7.5s /  30      3.9s /   3   188.83 MiB /   3   0 /   0
5b544789     1 /   0    0.08 /   0   2m48.0s /  26      5.0s /   4    1.0s /   5   2.3s /  19    0.3s /   1   1m37.8s /  78     3.71 GiB /  64   0 /   0
df1abff3   134 /  32   10.31 /  32   1m52.2s /  18     16.1s /  14    5.0s /  23   1.6s /  13    5.9s /  23     17.6s /  14     1.63 GiB /  28   0 /   0
281da777    48 /  11    3.69 /  11   1m25.0s /  13     23.6s /  20    3.9s /  18   0.1s /   0    1.2s /   5      2.5s /   2   148.85 MiB /   3   0 /   0
200aaa0e    13 /   3    1.00 /   3     10.0s /   2      2.9s /   3    1.6s /   7   0.0s /   0    2.8s /  11      0.4s /   0    14.00 MiB /   0   0 /   0
f08d8ee3     1 /   0    0.08 /   0      4.4s /   1      1.6s /   1    0.6s /   3   0.0s /   0    0.1s /   1      0.0s /   0     1.12 MiB /   0   0 /   0
61e3a979    18 /   4    1.38 /   4      3.4s /   1      0.3s /   0    0.2s /   1   0.0s /   0    1.6s /   6      0.5s /   0    11.74 MiB /   0   0 /   0
95fe56cf    10 /   2    0.77 /   2      0.6s /   0      0.1s /   0    0.1s /   0   0.0s /   0    0.0s /   0      0.3s /   0     7.68 MiB /   0   0 /   0
e6bee222     1 /   0    0.08 /   0      0.1s /   0      0.0s /   0    0.0s /   0   0.0s /   0    0.0s /   0      0.0s /   0   933.75 KiB /   0   0 /   0

