---
source: tests/cli_tests.rs
expression: "String::from_utf8_lossy(&output.stdout)"
---
ENDPOINT                       COUNT     RPS    P99_ms    P95_ms   MEDIAN_ms    MAX_ms    MIN_ms    STDDEV     SCORE     %FAIL
/internal/allowed                166    0.40     145.7     119.8        76.5     179.0      64.0      17.2   24186.2      0.00
/internal/authorized_keys        338    0.82      38.6      33.0        20.0      98.0      18.0       6.5   13056.9      0.00
/internal/lfs_authenticate        19    0.05      61.0      53.1        33.0      63.0      27.0       8.6    1159.4      0.00

