---
source: tests/cli_tests.rs
expression: "String::from_utf8_lossy(&output.stdout)"
---
Totals

COUNT:   756
RPS:     7.79
DUR:     2m24.6s
DB:      53.8s
REDIS:   7.9s
GITALY:  3.5s
CPU:     1m06.7s
MEM:     1.76 GiB
FAIL_CT: 6


Top 10 Path by Duration -- Percentages

PATH       COUNT   RPS   DUR    DB   REDIS   GITALY   CPU   MEM   FAIL_CT
499d4922      16    16    18    14       9       17    23    23        33
bff1b342       0     0     3     2      11       12     1     1         0
c471b5d5       0     0     3     2      12        0     2     2         0
712bd08e       2     2     2     3       1        0     2     1         0
4883ccda       1     1     2     3       1        0     1     1         0
e368cb3a       1     1     2     3       0        0     1     1         0
95e48bf9       0     0     2     1       7       20     1     1         0
5f2d3632       2     2     2     2       1        0     1     1         0
e62c7df5       2     2     2     2       0        0     1     1         0
8ebdab52       2     2     2     2       1        0     1     1         0


Top 10 Project by Duration -- Percentages

PROJECT    COUNT   RPS   DUR    DB   REDIS   GITALY   CPU   MEM   FAIL_CT
57cd2b89       2     2     4     5       1        0     3     1         0
16690a5e       2     2     4     4       2        0     3     1         0
3d918878       1     1     4     3      14       13     2     2         0
8fbb85b6       1     1     3     2      17       15     2     3        67
35331aba       1     1     3     4       2        0     2     1         0
32da7436       1     1     3     3       2        0     2     1         0
12222454       1     1     3     3       4       13     2     1         0
59b638fd       1     1     3     3       1        0     2     1         0
695df58c       3     3     2     3       5        1     3     4         0
d72926c2       0     0     2     1       7       20     1     1         0


Top 10 User by Duration -- Percentages

USER       COUNT   RPS   DUR    DB   REDIS   GITALY   CPU   MEM   FAIL_CT
5a641d46      22    22    44    54      22        0    29    15         0
0f8dea18      12    12    10     7       7        0    17    19         0
feae7d28       7     7     8     8       8        0     8     8         0
0070eb3e       5     5     5     4       3        0     6     5         0
c4aea5b5       4     4     5     2      15       34     5     6        50
218edb8b       2     2     4     4      15       15     3     3         0
809fa28a       4     4     4     4       7        0     4     5         0
0fd54713       6     6     3     1       2       10     7     9        50
28569d10       0     0     2     3       4       13     1     1         0
84a9d497       2     2     2     1       1        0     3     4         0

