---
source: tests/cli_tests.rs
expression: "String::from_utf8_lossy(&output.stdout)"
---
FILE           CONTROLLER                                                   COUNT     RPS    P99_ms    P95_ms   MEDIAN_ms    MAX_ms    MIN_ms    STDDEV     SCORE     %FAIL
prod_long.log  Repositories::GitHttpController#info_refs                      305    3.14     800.5     506.0        98.5    1339.7       8.6     192.4  244162.4      0.00
prod_long.log                                                                 305    3.14     800.5     506.0        98.5    1339.7       8.6     192.4  244162.4      0.00
ratio                                                                       1.00x   1.00x     1.00x     1.00x       1.00x     1.00x     1.00x     1.00x     1.00x     0.00x 

prod_long.log  GraphqlController#execute                                      120    1.24    1045.2     703.5       119.2    1491.5      35.6     235.9  125422.1      1.67
prod_long.log                                                                 120    1.24    1045.2     703.5       119.2    1491.5      35.6     235.9  125422.1      1.67
ratio                                                                       1.00x   1.00x     1.00x     1.00x       1.00x     1.00x     1.00x     1.00x     1.00x     1.00x 

prod_long.log  Repositories::GitHttpController#git_upload_pack                 77    0.79     939.7     754.1       344.8    1425.2      48.7     224.5   72357.1      0.00
prod_long.log                                                                  77    0.79     939.7     754.1       344.8    1425.2      48.7     224.5   72357.1      0.00
ratio                                                                       1.00x   1.00x     1.00x     1.00x       1.00x     1.00x     1.00x     1.00x     1.00x     0.00x 

prod_long.log  UploadsController#show                                          54    0.56     284.6      64.1        17.3     411.9       6.9      58.0   15366.7      0.00
prod_long.log                                                                  54    0.56     284.6      64.1        17.3     411.9       6.9      58.0   15366.7      0.00
ratio                                                                       1.00x   1.00x     1.00x     1.00x       1.00x     1.00x     1.00x     1.00x     1.00x     0.00x 

prod_long.log  ProjectsController#show                                          7    0.07    1816.3    1760.0       381.1    1830.4     287.2     613.4   12714.1      0.00
prod_long.log                                                                   7    0.07    1816.3    1760.0       381.1    1830.4     287.2     613.4   12714.1      0.00
ratio                                                                       1.00x   1.00x     1.00x     1.00x       1.00x     1.00x     1.00x     1.00x     1.00x     0.00x 

prod_long.log  Projects::MergeRequestsController#show                           3    0.03    2990.0    2783.5       459.6    3041.7     413.0    1228.3    8970.1      0.00
prod_long.log                                                                   3    0.03    2990.0    2783.5       459.6    3041.7     413.0    1228.3    8970.1      0.00
ratio                                                                       1.00x   1.00x     1.00x     1.00x       1.00x     1.00x     1.00x     1.00x     1.00x     0.00x 

prod_long.log  Projects::PipelinesController#index                              3    0.03    2006.0    1993.6      1854.1    2009.1    1178.8     360.5    6018.0      0.00
prod_long.log                                                                   3    0.03    2006.0    1993.6      1854.1    2009.1    1178.8     360.5    6018.0      0.00
ratio                                                                       1.00x   1.00x     1.00x     1.00x       1.00x     1.00x     1.00x     1.00x     1.00x     0.00x 

prod_long.log  Projects::MergeRequests::ContentController#widget                4    0.04    1063.2    1058.2       591.8    1064.5     157.8     442.5    4252.9      0.00
prod_long.log                                                                   4    0.04    1063.2    1058.2       591.8    1064.5     157.8     442.5    4252.9      0.00
ratio                                                                       1.00x   1.00x     1.00x     1.00x       1.00x     1.00x     1.00x     1.00x     1.00x     0.00x 

prod_long.log  Projects::MergeRequestsController#index                          4    0.04     880.0     816.3       346.1     896.0      95.6     293.0    3520.1      0.00
prod_long.log                                                                   4    0.04     880.0     816.3       346.1     896.0      95.6     293.0    3520.1      0.00
ratio                                                                       1.00x   1.00x     1.00x     1.00x       1.00x     1.00x     1.00x     1.00x     1.00x     0.00x 

prod_long.log  GroupsController#show                                            4    0.04     864.2     785.7       226.0     883.8     212.7     286.8    3456.8      0.00
prod_long.log                                                                   4    0.04     864.2     785.7       226.0     883.8     212.7     286.8    3456.8      0.00
ratio                                                                       1.00x   1.00x     1.00x     1.00x       1.00x     1.00x     1.00x     1.00x     1.00x     0.00x 

prod_long.log  Projects::IssuesController#show                                 10    0.10     337.9     329.6       253.2     340.0      43.0     118.4    3379.1      0.00
prod_long.log                                                                  10    0.10     337.9     329.6       253.2     340.0      43.0     118.4    3379.1      0.00
ratio                                                                       1.00x   1.00x     1.00x     1.00x       1.00x     1.00x     1.00x     1.00x     1.00x     0.00x 

prod_long.log  Projects::NotesController#index                                  6    0.06     520.7     420.6        40.7     545.7      29.3     189.0    3124.1      0.00
prod_long.log                                                                   6    0.06     520.7     420.6        40.7     545.7      29.3     189.0    3124.1      0.00
ratio                                                                       1.00x   1.00x     1.00x     1.00x       1.00x     1.00x     1.00x     1.00x     1.00x     0.00x 

prod_long.log  Projects::BlobController#show                                    8    0.08     342.9     313.3       178.8     350.3      59.0      90.0    2743.5     25.00
prod_long.log                                                                   8    0.08     342.9     313.3       178.8     350.3      59.0      90.0    2743.5     25.00
ratio                                                                       1.00x   1.00x     1.00x     1.00x       1.00x     1.00x     1.00x     1.00x     1.00x     1.00x 

prod_long.log  Groups::BoardsController#show                                    3    0.03     854.6     801.8       207.4     867.8     200.4     313.0    2563.8      0.00
prod_long.log                                                                   3    0.03     854.6     801.8       207.4     867.8     200.4     313.0    2563.8      0.00
ratio                                                                       1.00x   1.00x     1.00x     1.00x       1.00x     1.00x     1.00x     1.00x     1.00x     0.00x 

prod_long.log  Projects::RefsController#logs_tree                               6    0.06     409.3     366.1        57.3     420.1      39.8     137.9    2455.6     33.33
prod_long.log                                                                   6    0.06     409.3     366.1        57.3     420.1      39.8     137.9    2455.6     33.33
ratio                                                                       1.00x   1.00x     1.00x     1.00x       1.00x     1.00x     1.00x     1.00x     1.00x     1.00x 

prod_long.log  JwtController#auth                                              18    0.19     133.0     111.4        45.2     138.3      41.6      26.9    2393.3      0.00
prod_long.log                                                                  18    0.19     133.0     111.4        45.2     138.3      41.6      26.9    2393.3      0.00
ratio                                                                       1.00x   1.00x     1.00x     1.00x       1.00x     1.00x     1.00x     1.00x     1.00x     0.00x 

prod_long.log  Projects::IssuesController#discussions                           5    0.05     409.3     394.8       124.7     412.9      92.3     130.4    2046.3      0.00
prod_long.log                                                                   5    0.05     409.3     394.8       124.7     412.9      92.3     130.4    2046.3      0.00
ratio                                                                       1.00x   1.00x     1.00x     1.00x       1.00x     1.00x     1.00x     1.00x     1.00x     0.00x 

prod_long.log  Projects::IssuesController#can_create_branch                     5    0.05     350.2     334.0        91.9     354.3      51.5     118.6    1751.1      0.00
prod_long.log                                                                   5    0.05     350.2     334.0        91.9     354.3      51.5     118.6    1751.1      0.00
ratio                                                                       1.00x   1.00x     1.00x     1.00x       1.00x     1.00x     1.00x     1.00x     1.00x     0.00x 

prod_long.log  Projects::IssuesController#related_branches                      5    0.05     250.2     221.6        52.6     257.4      45.9      81.1    1251.0      0.00
prod_long.log                                                                   5    0.05     250.2     221.6        52.6     257.4      45.9      81.1    1251.0      0.00
ratio                                                                       1.00x   1.00x     1.00x     1.00x       1.00x     1.00x     1.00x     1.00x     1.00x     0.00x 

prod_long.log  Projects::IssuesController#index                                 5    0.05     229.7     224.2       142.9     231.1      70.8      55.0    1148.5      0.00
prod_long.log                                                                   5    0.05     229.7     224.2       142.9     231.1      70.8      55.0    1148.5      0.00
ratio                                                                       1.00x   1.00x     1.00x     1.00x       1.00x     1.00x     1.00x     1.00x     1.00x     0.00x 

prod_long.log  Projects::IssueFeatureFlagsController#index                      5    0.05     179.5     161.9        72.3     183.9      18.3      55.1     897.3      0.00
prod_long.log                                                                   5    0.05     179.5     161.9        72.3     183.9      18.3      55.1     897.3      0.00
ratio                                                                       1.00x   1.00x     1.00x     1.00x       1.00x     1.00x     1.00x     1.00x     1.00x     0.00x 

prod_long.log  Projects::CommitController#pipelines                             9    0.09      99.2      96.0        48.3     100.0      43.8      19.6     892.6      0.00
prod_long.log                                                                   9    0.09      99.2      96.0        48.3     100.0      43.8      19.6     892.6      0.00
ratio                                                                       1.00x   1.00x     1.00x     1.00x       1.00x     1.00x     1.00x     1.00x     1.00x     0.00x 

prod_long.log  GroupsController#issues                                          4    0.04     205.9     196.7       129.1     208.2      76.0      47.2     823.7      0.00
prod_long.log                                                                   4    0.04     205.9     196.7       129.1     208.2      76.0      47.2     823.7      0.00
ratio                                                                       1.00x   1.00x     1.00x     1.00x       1.00x     1.00x     1.00x     1.00x     1.00x     0.00x 

prod_long.log  Projects::IssueLinksController#index                             5    0.05     156.9     155.8       109.9     157.2      47.7      44.4     784.6      0.00
prod_long.log                                                                   5    0.05     156.9     155.8       109.9     157.2      47.7      44.4     784.6      0.00
ratio                                                                       1.00x   1.00x     1.00x     1.00x       1.00x     1.00x     1.00x     1.00x     1.00x     0.00x 

prod_long.log  Projects::MergeRequests::ContentController#cached_widget         1    0.01     774.2     774.2       774.2     774.2     774.2       0.0     774.2      0.00
prod_long.log                                                                   1    0.01     774.2     774.2       774.2     774.2     774.2       0.0     774.2      0.00
ratio                                                                       1.00x   1.00x     1.00x     1.00x       1.00x     1.00x     1.00x     0.00x     1.00x     0.00x 

prod_long.log  Groups::ChildrenController#index                                 4    0.04     189.5     183.5       127.6     191.0     109.0      32.5     758.2      0.00
prod_long.log                                                                   4    0.04     189.5     183.5       127.6     191.0     109.0      32.5     758.2      0.00
ratio                                                                       1.00x   1.00x     1.00x     1.00x       1.00x     1.00x     1.00x     1.00x     1.00x     0.00x 

prod_long.log  Projects::TreeController#show                                    1    0.01     631.2     631.2       631.2     631.2     631.2       0.0     631.2      0.00
prod_long.log                                                                   1    0.01     631.2     631.2       631.2     631.2     631.2       0.0     631.2      0.00
ratio                                                                       1.00x   1.00x     1.00x     1.00x       1.00x     1.00x     1.00x     0.00x     1.00x     0.00x 

prod_long.log  PwaController#manifest                                          25    0.26      22.1      16.5         4.7      23.5       3.2       4.6     552.6      0.00
prod_long.log                                                                  25    0.26      22.1      16.5         4.7      23.5       3.2       4.6     552.6      0.00
ratio                                                                       1.00x   1.00x     1.00x     1.00x       1.00x     1.00x     1.00x     1.00x     1.00x     0.00x 

prod_long.log  Projects::BoardsController#show                                  2    0.02     251.3     250.1       236.0     251.7     220.4      15.6     502.7      0.00
prod_long.log                                                                   2    0.02     251.3     250.1       236.0     251.7     220.4      15.6     502.7      0.00
ratio                                                                       1.00x   1.00x     1.00x     1.00x       1.00x     1.00x     1.00x     1.00x     1.00x     0.00x 

prod_long.log  Projects::MergeRequestsController#ci_environments_status         2    0.02     169.8     164.9       109.5     171.1      47.9      61.6     339.7      0.00
prod_long.log                                                                   2    0.02     169.8     164.9       109.5     171.1      47.9      61.6     339.7      0.00
ratio                                                                       1.00x   1.00x     1.00x     1.00x       1.00x     1.00x     1.00x     1.00x     1.00x     0.00x 

prod_long.log  Projects::IssuesController#realtime_changes                      4    0.04      54.1      52.5        38.5      54.5      27.0       9.9     216.5      0.00
prod_long.log                                                                   4    0.04      54.1      52.5        38.5      54.5      27.0       9.9     216.5      0.00
ratio                                                                       1.00x   1.00x     1.00x     1.00x       1.00x     1.00x     1.00x     1.00x     1.00x     0.00x 

prod_long.log  Projects::BadgesController#pipeline                              2    0.02     105.6     102.5        67.7     106.3      29.1      38.6     211.1      0.00
prod_long.log                                                                   2    0.02     105.6     102.5        67.7     106.3      29.1      38.6     211.1      0.00
ratio                                                                       1.00x   1.00x     1.00x     1.00x       1.00x     1.00x     1.00x     1.00x     1.00x     0.00x 

prod_long.log  SessionsController#new                                           4    0.04      49.3      49.0        41.4      49.4      28.8       8.3     197.2      0.00
prod_long.log                                                                   4    0.04      49.3      49.0        41.4      49.4      28.8       8.3     197.2      0.00
ratio                                                                       1.00x   1.00x     1.00x     1.00x       1.00x     1.00x     1.00x     1.00x     1.00x     0.00x 

prod_long.log  Projects::LabelsController#index                                 1    0.01     155.1     155.1       155.1     155.1     155.1       0.0     155.1      0.00
prod_long.log                                                                   1    0.01     155.1     155.1       155.1     155.1     155.1       0.0     155.1      0.00
ratio                                                                       1.00x   1.00x     1.00x     1.00x       1.00x     1.00x     1.00x     0.00x     1.00x     0.00x 

prod_long.log  SandboxController#mermaid                                        6    0.06      25.7      25.1        17.5      25.8      11.4       6.0     154.1      0.00
prod_long.log                                                                   6    0.06      25.7      25.1        17.5      25.8      11.4       6.0     154.1      0.00
ratio                                                                       1.00x   1.00x     1.00x     1.00x       1.00x     1.00x     1.00x     1.00x     1.00x     0.00x 

prod_long.log  Projects::NotesController#create                                 1    0.01     151.6     151.6       151.6     151.6     151.6       0.0     151.6      0.00
prod_long.log                                                                   1    0.01     151.6     151.6       151.6     151.6     151.6       0.0     151.6      0.00
ratio                                                                       1.00x   1.00x     1.00x     1.00x       1.00x     1.00x     1.00x     0.00x     1.00x     0.00x 

prod_long.log  HelpController#index                                             2    0.02      75.0      74.9        73.3      75.1      71.5       1.8     150.1      0.00
prod_long.log                                                                   2    0.02      75.0      74.9        73.3      75.1      71.5       1.8     150.1      0.00
ratio                                                                       1.00x   1.00x     1.00x     1.00x       1.00x     1.00x     1.00x     1.00x     1.00x     0.00x 

prod_long.log  Projects::BadgesController#coverage                              2    0.02      71.5      69.4        45.6      72.0      19.2      26.4     143.0      0.00
prod_long.log                                                                   2    0.02      71.5      69.4        45.6      72.0      19.2      26.4     143.0      0.00
ratio                                                                       1.00x   1.00x     1.00x     1.00x       1.00x     1.00x     1.00x     1.00x     1.00x     0.00x 

prod_long.log  Projects::IssuesController#service_desk                          1    0.01     140.6     140.6       140.6     140.6     140.6       0.0     140.6      0.00
prod_long.log                                                                   1    0.01     140.6     140.6       140.6     140.6     140.6       0.0     140.6      0.00
ratio                                                                       1.00x   1.00x     1.00x     1.00x       1.00x     1.00x     1.00x     0.00x     1.00x     0.00x 

prod_long.log  GroupsController#merge_requests                                  1    0.01     136.9     136.9       136.9     136.9     136.9       0.0     136.9      0.00
prod_long.log                                                                   1    0.01     136.9     136.9       136.9     136.9     136.9       0.0     136.9      0.00
ratio                                                                       1.00x   1.00x     1.00x     1.00x       1.00x     1.00x     1.00x     0.00x     1.00x     0.00x 

prod_long.log  Projects::ForksController#index                                  1    0.01     119.0     119.0       119.0     119.0     119.0       0.0     119.0      0.00
prod_long.log                                                                   1    0.01     119.0     119.0       119.0     119.0     119.0       0.0     119.0      0.00
ratio                                                                       1.00x   1.00x     1.00x     1.00x       1.00x     1.00x     1.00x     0.00x     1.00x     0.00x 

prod_long.log  Groups::EpicsController#index                                    1    0.01     116.0     116.0       116.0     116.0     116.0       0.0     116.0      0.00
prod_long.log                                                                   1    0.01     116.0     116.0       116.0     116.0     116.0       0.0     116.0      0.00
ratio                                                                       1.00x   1.00x     1.00x     1.00x       1.00x     1.00x     1.00x     0.00x     1.00x     0.00x 

prod_long.log  Projects::MilestonesController#index                             1    0.01     108.3     108.3       108.3     108.3     108.3       0.0     108.3      0.00
prod_long.log                                                                   1    0.01     108.3     108.3       108.3     108.3     108.3       0.0     108.3      0.00
ratio                                                                       1.00x   1.00x     1.00x     1.00x       1.00x     1.00x     1.00x     0.00x     1.00x     0.00x 

prod_long.log  ApplicationController#route_not_found                            2    0.02      39.4      38.0        22.0      39.8       4.3      17.7      78.9      0.00
prod_long.log                                                                   2    0.02      39.4      38.0        22.0      39.8       4.3      17.7      78.9      0.00
ratio                                                                       1.00x   1.00x     1.00x     1.00x       1.00x     1.00x     1.00x     1.00x     1.00x     0.00x 

prod_long.log  Projects::WebIdeTerminalsController#check_config                 1    0.01      74.5      74.5        74.5      74.5      74.5       0.0      74.5      0.00
prod_long.log                                                                   1    0.01      74.5      74.5        74.5      74.5      74.5       0.0      74.5      0.00
ratio                                                                       1.00x   1.00x     1.00x     1.00x       1.00x     1.00x     1.00x     0.00x     1.00x     0.00x 

prod_long.log  Projects::WebIdeSchemasController#show                           2    0.02      31.1      31.1        30.5      31.1      29.8       0.7      62.2      0.00
prod_long.log                                                                   2    0.02      31.1      31.1        30.5      31.1      29.8       0.7      62.2      0.00
ratio                                                                       1.00x   1.00x     1.00x     1.00x       1.00x     1.00x     1.00x     1.00x     1.00x     0.00x 

prod_long.log  Projects::AutocompleteSourcesController#labels                   1    0.01      59.4      59.4        59.4      59.4      59.4       0.0      59.4      0.00
prod_long.log                                                                   1    0.01      59.4      59.4        59.4      59.4      59.4       0.0      59.4      0.00
ratio                                                                       1.00x   1.00x     1.00x     1.00x       1.00x     1.00x     1.00x     0.00x     1.00x     0.00x 

prod_long.log  Projects::AutocompleteSourcesController#issues                   1    0.01      33.4      33.4        33.4      33.4      33.4       0.0      33.4      0.00
prod_long.log                                                                   1    0.01      33.4      33.4        33.4      33.4      33.4       0.0      33.4      0.00
ratio                                                                       1.00x   1.00x     1.00x     1.00x       1.00x     1.00x     1.00x     0.00x     1.00x     0.00x 

prod_long.log  SearchController#opensearch                                      5    0.05       4.9       4.8         4.3       4.9       4.2       0.3      24.6      0.00
prod_long.log                                                                   5    0.05       4.9       4.8         4.3       4.9       4.2       0.3      24.6      0.00
ratio                                                                       1.00x   1.00x     1.00x     1.00x       1.00x     1.00x     1.00x     1.00x     1.00x     0.00x 

prod_long.log  Peek::ResultsController#show                                     1    0.01       8.5       8.5         8.5       8.5       8.5       0.0       8.5      0.00
prod_long.log                                                                   1    0.01       8.5       8.5         8.5       8.5       8.5       0.0       8.5      0.00
ratio                                                                       1.00x   1.00x     1.00x     1.00x       1.00x     1.00x     1.00x     0.00x     1.00x     0.00x 

prod_long.log  MetricsController#index                                          6    0.06       1.1       1.1         1.0       1.1       1.0       0.0       6.5      0.00
prod_long.log                                                                   6    0.06       1.1       1.1         1.0       1.1       1.0       0.0       6.5      0.00
ratio                                                                       1.00x   1.00x     1.00x     1.00x       1.00x     1.00x     1.00x     1.00x     1.00x     0.00x 


