---
source: tests/cli_tests.rs
expression: "String::from_utf8_lossy(&output.stdout)"
---
ENDPOINT                      STDDEV
/internal/allowed               17.2
/internal/authorized_keys        6.5
/internal/lfs_authenticate       8.6

