---
source: tests/cli_tests.rs
expression: "String::from_utf8_lossy(&output.stdout)"
---
WORKER                                                        RPS
Ci::ArchiveTraceWorker                                       1.46
Ci::BuildTraceChunkFlushWorker                              10.31
PipelineProcessWorker                                        3.38
Ci::BuildFinishedWorker                                      1.23
WebHooks::LogExecutionWorker                                 4.92
ExternalServiceReactiveCachingWorker                         0.08
WebHookWorker                                                5.15
BuildSuccessWorker                                           1.85
Ci::PipelineBridgeStatusWorker                               0.38
BuildQueueWorker                                             0.31
PipelineNotificationWorker                                   0.15
Integrations::ExecuteWorker                                  0.31
RepositoryUpdateMirrorWorker                                 0.23
JiraConnect::SyncBuildsWorker                                0.54
UpdateAllMirrorsWorker                                       0.08
ScheduleMergeRequestCleanupRefsWorker                        0.08
ProjectImportScheduleWorker                                  0.46
PipelineHooksWorker                                          0.08
LooseForeignKeys::CleanupWorker                              0.08
Geo::SidekiqCronConfigWorker                                 0.08
Ci::SyncReportsToReportApprovalRulesWorker                   0.15
PipelineMetricsWorker                                        0.23
Ci::JobArtifacts::TrackArtifactReportWorker                  0.15
Ci::ResourceGroups::AssignResourceFromResourceGroupWorker    0.15
Ci::PipelineArtifacts::CoverageReportWorker                  0.15
Ci::TrackFailedBuildWorker                                   0.08
Ci::MergeRequests::AddTodoWhenBuildFailsWorker               0.08
Ci::PipelineArtifacts::CreateQualityReportWorker             0.08
Database::BatchedBackgroundMigration::CiDatabaseWorker       0.08

