---
source: tests/cli_tests.rs
expression: "String::from_utf8_lossy(&output.stdout)"
---
FILE             METHOD                             COUNT     RPS    P99_ms    P95_ms   MEDIAN_ms    MAX_ms    MIN_ms    STDDEV     SCORE     %FAIL
gitaly_long.log  CalculateChecksum                      4    1.33    9755.4    9740.6      9560.1    9759.1    9300.6     171.4   39021.6    100.00
gitaly_long.log                                         4    1.33    9755.4    9740.6      9560.1    9759.1    9300.6     171.4   39021.6    100.00
ratio                                               1.00x   1.00x     1.00x     1.00x       1.00x     1.00x     1.00x     1.00x     1.00x     1.00x 

gitaly_long.log  CommitStats                            9    3.00    1290.3     845.9         8.2    1401.3       7.5     437.6   11612.3      0.00
gitaly_long.log                                         9    3.00    1290.3     845.9         8.2    1401.3       7.5     437.6   11612.3      0.00
ratio                                               1.00x   1.00x     1.00x     1.00x       1.00x     1.00x     1.00x     1.00x     1.00x     0.00x 

gitaly_long.log  FindCommit                           777  259.00       4.5       0.8         0.2      10.8       0.1       0.9    3520.0      0.00
gitaly_long.log                                       777  259.00       4.5       0.8         0.2      10.8       0.1       0.9    3520.0      0.00
ratio                                               1.00x   1.00x     1.00x     1.00x       1.00x     1.00x     1.00x     1.00x     1.00x     0.00x 

gitaly_long.log  PostUploadPackWithSidechannel         12    4.00     222.9     123.3         9.4     247.8       6.1      65.6    2675.0      0.00
gitaly_long.log                                        12    4.00     222.9     123.3         9.4     247.8       6.1      65.6    2675.0      0.00
ratio                                               1.00x   1.00x     1.00x     1.00x       1.00x     1.00x     1.00x     1.00x     1.00x     0.00x 

gitaly_long.log  InfoRefsUploadPack                    42   14.00       8.0       7.1         0.5       8.5       0.3       2.7     336.5      0.00
gitaly_long.log                                        42   14.00       8.0       7.1         0.5       8.5       0.3       2.7     336.5      0.00
ratio                                               1.00x   1.00x     1.00x     1.00x       1.00x     1.00x     1.00x     1.00x     1.00x     0.00x 

gitaly_long.log  GetBlobs                              13    4.33      15.7      13.3         8.1      16.3       6.9       2.4     204.4      0.00
gitaly_long.log                                        13    4.33      15.7      13.3         8.1      16.3       6.9       2.4     204.4      0.00
ratio                                               1.00x   1.00x     1.00x     1.00x       1.00x     1.00x     1.00x     1.00x     1.00x     0.00x 

gitaly_long.log  PackObjectsHookWithSidechannel         1    0.33     203.2     203.2       203.2     203.2     203.2       0.0     203.2      0.00
gitaly_long.log                                         1    0.33     203.2     203.2       203.2     203.2     203.2       0.0     203.2      0.00
ratio                                               1.00x   1.00x     1.00x     1.00x       1.00x     1.00x     1.00x     0.00x     1.00x     0.00x 

gitaly_long.log  ListCommitsByOid                      20    6.67       6.3       5.0         3.0       6.7       0.3       1.7     126.8      0.00
gitaly_long.log                                        20    6.67       6.3       5.0         3.0       6.7       0.3       1.7     126.8      0.00
ratio                                               1.00x   1.00x     1.00x     1.00x       1.00x     1.00x     1.00x     1.00x     1.00x     0.00x 

gitaly_long.log  ListConflictFiles                      1    0.33      37.7      37.7        37.7      37.7      37.7       0.0      37.7      0.00
gitaly_long.log                                         1    0.33      37.7      37.7        37.7      37.7      37.7       0.0      37.7      0.00
ratio                                               1.00x   1.00x     1.00x     1.00x       1.00x     1.00x     1.00x     0.00x     1.00x     0.00x 

gitaly_long.log  GetInfoAttributes                      3    1.00       0.3       0.3         0.2       0.3       0.2       0.1       0.9      0.00
gitaly_long.log                                         3    1.00       0.3       0.3         0.2       0.3       0.2       0.1       0.9      0.00
ratio                                               1.00x   1.00x     1.00x     1.00x       1.00x     1.00x     1.00x     1.00x     1.00x     0.00x 


