---
source: tests/cli_tests.rs
expression: "String::from_utf8_lossy(&output.stdout)"
---
CONTROLLER                                                  MAX_ms
Repositories::GitHttpController#info_refs                   1339.7
GraphqlController#execute                                   1491.5
Repositories::GitHttpController#git_upload_pack             1425.2
UploadsController#show                                       411.9
ProjectsController#show                                     1830.4
Projects::MergeRequestsController#show                      3041.7
Projects::PipelinesController#index                         2009.1
Projects::MergeRequests::ContentController#widget           1064.5
Projects::MergeRequestsController#index                      896.0
GroupsController#show                                        883.8
Projects::IssuesController#show                              340.0
Projects::NotesController#index                              545.7
Projects::BlobController#show                                350.3
Groups::BoardsController#show                                867.8
Projects::RefsController#logs_tree                           420.1
JwtController#auth                                           138.3
Projects::IssuesController#discussions                       412.9
Projects::IssuesController#can_create_branch                 354.3
Projects::IssuesController#related_branches                  257.4
Projects::IssuesController#index                             231.1
Projects::IssueFeatureFlagsController#index                  183.9
Projects::CommitController#pipelines                         100.0
GroupsController#issues                                      208.2
Projects::IssueLinksController#index                         157.2
Projects::MergeRequests::ContentController#cached_widget     774.2
Groups::ChildrenController#index                             191.0
Projects::TreeController#show                                631.2
PwaController#manifest                                        23.5
Projects::BoardsController#show                              251.7
Projects::MergeRequestsController#ci_environments_status     171.1
Projects::IssuesController#realtime_changes                   54.5
Projects::BadgesController#pipeline                          106.3
SessionsController#new                                        49.4
Projects::LabelsController#index                             155.1
SandboxController#mermaid                                     25.8
Projects::NotesController#create                             151.6
HelpController#index                                          75.1
Projects::BadgesController#coverage                           72.0
Projects::IssuesController#service_desk                      140.6
GroupsController#merge_requests                              136.9
Projects::ForksController#index                              119.0
Groups::EpicsController#index                                116.0
Projects::MilestonesController#index                         108.3
ApplicationController#route_not_found                         39.8
Projects::WebIdeTerminalsController#check_config              74.5
Projects::WebIdeSchemasController#show                        31.1
Projects::AutocompleteSourcesController#labels                59.4
Projects::AutocompleteSourcesController#issues                33.4
SearchController#opensearch                                    4.9
Peek::ResultsController#show                                   8.5
MetricsController#index                                        1.1

