---
source: tests/cli_tests.rs
expression: "String::from_utf8_lossy(&output.stdout)"
---
WORKER                                                        COUNT     RPS    P99_ms    P95_ms   MEDIAN_ms    MAX_ms    MIN_ms    STDDEV      SCORE     %FAIL
Ci::BuildTraceChunkFlushWorker                                  134   10.31    6060.9    4361.6        90.9    7262.4      19.6    1291.9   812154.5      0.00
WebHookWorker                                                    67    5.15    2373.4     132.8        79.8    2503.5      32.3     465.9   159018.3      0.00
WebHooks::LogExecutionWorker                                     64    4.92    3349.4    1794.5        35.5    3856.7      28.5     767.3   214362.0      0.00
PipelineProcessWorker                                            44    3.38    6893.4    1666.5       104.2    7270.8      14.6    1422.2   303311.8      0.00
BuildSuccessWorker                                               24    1.85    1403.8    1192.9        12.4    1405.3      11.2     383.6    33690.9      0.00
Ci::ArchiveTraceWorker                                           19    1.46  129006.9   76524.7       602.9  142127.4     375.7   34225.8  2451130.6      0.00
Ci::BuildFinishedWorker                                          16    1.23   18112.4   12613.8       211.3   19487.0     122.4    5122.1   289797.7      0.00
JiraConnect::SyncBuildsWorker                                     7    0.54     475.9     473.2       422.2     476.6      30.2     183.0     3331.5      0.00
ProjectImportScheduleWorker                                       6    0.46      61.6      61.3        58.8      61.7      56.5       1.7      369.7      0.00
Ci::PipelineBridgeStatusWorker                                    5    0.38    4713.7    3937.4        55.2    4907.8      52.6    1941.4    23568.7      0.00
BuildQueueWorker                                                  4    0.31    4806.9    4224.9        98.9    4952.5      95.0    2102.2    19227.8      0.00
Integrations::ExecuteWorker                                       4    0.31    2241.4    1975.0        63.4    2308.0      35.3     976.2     8965.4      0.00
PipelineMetricsWorker                                             3    0.23      24.9      24.3        17.9      25.0      16.7       3.7       74.6      0.00
RepositoryUpdateMirrorWorker                                      3    0.23    2651.7    2598.4      1998.5    2665.0    1448.2     497.5     7955.1      0.00
Ci::JobArtifacts::TrackArtifactReportWorker                       2    0.15      35.9      35.9        35.7      35.9      35.4       0.3       71.9      0.00
Ci::PipelineArtifacts::CoverageReportWorker                       2    0.15      28.0      27.9        27.2      28.0      26.4       0.8       56.0      0.00
Ci::ResourceGroups::AssignResourceFromResourceGroupWorker         2    0.15      28.6      28.5        27.8      28.6      27.0       0.8       57.1      0.00
Ci::SyncReportsToReportApprovalRulesWorker                        2    0.15      42.6      42.6        42.2      42.6      41.8       0.4       85.2      0.00
PipelineNotificationWorker                                        2    0.15    4489.1    4310.3      2299.0    4533.8      64.2    2234.8     8978.2      0.00
Ci::MergeRequests::AddTodoWhenBuildFailsWorker                    1    0.08      21.6      21.6        21.6      21.6      21.6       0.0       21.6      0.00
Ci::PipelineArtifacts::CreateQualityReportWorker                  1    0.08      20.0      20.0        20.0      20.0      20.0       0.0       20.0      0.00
Ci::TrackFailedBuildWorker                                        1    0.08      41.1      41.1        41.1      41.1      41.1       0.0       41.1      0.00
Database::BatchedBackgroundMigration::CiDatabaseWorker            1    0.08      11.7      11.7        11.7      11.7      11.7       0.0       11.7      0.00
ExternalServiceReactiveCachingWorker                              1    0.08  168011.1  168011.1    168011.1  168011.1  168011.1       0.0   168011.1      0.00
Geo::SidekiqCronConfigWorker                                      1    0.08      86.6      86.6        86.6      86.6      86.6       0.0       86.6      0.00
LooseForeignKeys::CleanupWorker                                   1    0.08     167.1     167.1       167.1     167.1     167.1       0.0      167.1      0.00
PipelineHooksWorker                                               1    0.08     186.9     186.9       186.9     186.9     186.9       0.0      186.9      0.00
ScheduleMergeRequestCleanupRefsWorker                             1    0.08     899.3     899.3       899.3     899.3     899.3       0.0      899.3      0.00
UpdateAllMirrorsWorker                                            1    0.08    3177.1    3177.1      3177.1    3177.1    3177.1       0.0     3177.1      0.00

