---
source: tests/cli_tests.rs
expression: "String::from_utf8_lossy(&output.stdout)"
---
WORKER                                                         SCORE
Ci::ArchiveTraceWorker                                     2451130.6
Ci::BuildTraceChunkFlushWorker                              812154.5
PipelineProcessWorker                                       303311.8
Ci::BuildFinishedWorker                                     289797.7
WebHooks::LogExecutionWorker                                214362.0
ExternalServiceReactiveCachingWorker                        168011.1
WebHookWorker                                               159018.3
BuildSuccessWorker                                           33690.9
Ci::PipelineBridgeStatusWorker                               23568.7
BuildQueueWorker                                             19227.8
PipelineNotificationWorker                                    8978.2
Integrations::ExecuteWorker                                   8965.4
RepositoryUpdateMirrorWorker                                  7955.1
JiraConnect::SyncBuildsWorker                                 3331.5
UpdateAllMirrorsWorker                                        3177.1
ScheduleMergeRequestCleanupRefsWorker                          899.3
ProjectImportScheduleWorker                                    369.7
PipelineHooksWorker                                            186.9
LooseForeignKeys::CleanupWorker                                167.1
Geo::SidekiqCronConfigWorker                                    86.6
Ci::SyncReportsToReportApprovalRulesWorker                      85.2
PipelineMetricsWorker                                           74.6
Ci::JobArtifacts::TrackArtifactReportWorker                     71.9
Ci::ResourceGroups::AssignResourceFromResourceGroupWorker       57.1
Ci::PipelineArtifacts::CoverageReportWorker                     56.0
Ci::TrackFailedBuildWorker                                      41.1
Ci::MergeRequests::AddTodoWhenBuildFailsWorker                  21.6
Ci::PipelineArtifacts::CreateQualityReportWorker                20.0
Database::BatchedBackgroundMigration::CiDatabaseWorker          11.7

